analysis.utf8
…
# Most tracks are performed under an interval of roughly 900 seconds and many are around this time, however a big amount of data has as well a tracking interval of around 3000 to 8000 seconds. The three individuals have similar time interval distribution
wildschwein_BE %>% filter(timelag > 1000) 

## Simple feature collection with 6254 features and 10 fields
## Geometry type: POINT
## Dimension:     XY
## Bounding box:  xmin: 2568153 ymin: 1202996 xmax: 2575073 ymax: 1207571
## Projected CRS: CH1903+ / LV95
## # A tibble: 6,254 x 11
## # Groups:   TierID [3]
##    TierID TierName CollarID DatetimeUTC                E        N
##  * <chr>  <chr>       <dbl> <dttm>                 <dbl>    <dbl>
##  1 002A   Sabi        12275 2014-08-23 05:00:12 2569766. 1205208.
##  2 002A   Sabi        12275 2014-08-23 08:00:43 2569764. 1205206.
##  3 002A   Sabi        12275 2014-08-23 11:00:44 2569763. 1205203.
##  4 002A   Sabi        12275 2014-08-23 14:00:43 2569765. 1205205.
##  5 002A   Sabi        12275 2014-08-24 01:45:24 2569770. 1205199.
##  6 002A   Sabi        12275 2014-08-24 05:00:05 2569774. 1205247.
##  7 002A   Sabi        12275 2014-08-24 08:00:43 2569782. 1205203.
##  8 002A   Sabi        12275 2014-08-24 11:01:54 2569790. 1205201.
##  9 002A   Sabi        12275 2014-08-24 14:01:14 2569783. 1205212.
## 10 002A   Sabi        12275 2014-08-25 05:00:38 2569912. 1205363.
## #  with 6,244 more rows, and 5 more variables: geometry <POINT [m]>,
## #   timelag <dbl>, firsttime <dttm>, lasttime <dttm>, track_timediff <drtn>
…
